[
    {
        "logoSrc": "https://www.xiaorgeek.com/Software/logo/xrcontroller.png",
        "name": "XR-Controller for Android",
        "version": "v1.4.139,arm64,armv7a",
        "desc": "support X-series、Jetbot V2.0、DonkeyCar and Bionic robots",
        "link": [
            "./software/android/XR-Controller_V1.4.139.240604.1d1b340_arm64-v8a-release.apk",
            "./software/android/XR-Controller_V1.4.139.240604.1d1b340_armeabi-v7a-release.apk"
        ],
        "btnNames": [
            "arm64",
            "armv7a"
        ]
    },
    {
        "logoSrc": "https://www.xiaorgeek.com/Software/logo/xrcontroller.png",
        "name": "Corgi for iOS",
        "version": "v1.2.0",
        "desc": "support Bionic robots like hexapod、corgi dog.This is part of the iOS implementation of the xr-controller",
        "link": [
            "./software/image/xr-controller_IOS.png"
        ],
        "btnNames": [
            "QRCode"
        ]
    },
    {
        "logoSrc": "https://www.xiaorgeek.com/Software/logo/rosslam.png",
        "name": "ROSXRMobile for Android",
        "version": "v1.6.71",
        "desc": "support jetson nano、raspberry pi and sunrise ros series robot. Software is only android support",
        "link": [
            "./software/android/ROSXRMobile V1.6.71.230508.97a7d55.apk"
        ],
        "btnNames": [
            "Download"
        ]
    },
    {
        "logoSrc": "./software/image/ros2mobile.png",
        "name": "ROS2Mobile for Android",
        "version": "v1.0.21,arm64",
        "desc": "A ROS2 Android App",
        "link": [
            "./software/android/ROS2Mobile_V1.0.21.240604.ee1d8af_arm64-v8a-release.apk"
        ],
        "btnNames": [
            "Download"
        ]
    },
    {
        "logoSrc": "http://bugly.xiao-r.com/api/static/avatar/pqYaS_7sg.png",
        "name": "ROSCollie for Android",
        "version": "v1.0.0",
        "desc": "colie dog ros application",
        "link": [
            "./software/android/roscollie.apk"
        ],
        "btnNames": [
            "Download"
        ]
    },
    {
        "logoSrc": "https://www.xiaorgeek.com/Software/logo/wifirobot.jpg",
        "name": "WifiRobot for iOS/Android",
        "version": "v2.37",
        "desc": "Wireless Robot Car. <span style='color:red'>Android software no longer maintained, use xr-controller ASAP.</span>",
        "link": [
            "https://www.xiaorgeek.com/Software/WiFiRobot_V2.37.apk",
            "https://www.xiaorgeek.com/Software/XiaoRGEEK_iOS_For_DS_GFS_TH.jpg"
        ],
        "btnNames": [
            "Android",
            "iOS"
        ]
    },
    {
        "logoSrc": "https://www.xiaorgeek.com/Software/logo/wifirobot_pc.jpg",
        "name": "WifiRobot for Window",
        "version": "v1.2.7",
        "desc": "support win7、win8、win10 and win11. Suitable for most products, please contact customer service for details",
        "link": [
            "https://www.xiaorgeek.com/Software/XiaoRGEEK_PC_For_DS_GFS_TH.zip"
        ],
        "btnNames": [
            "Download"
        ]
    },
    {
        "logoSrc": "https://www.xiaorgeek.com/Software/logo/donkeycar.png",
        "name": "XR-DonkeyCar for Android",
        "version": "v1.6",
        "desc": "only android support. <span style='color:red'>No longer maintained, use xr-controller ASAP.</span>",
        "link": [
            "https://www.xiaorgeek.com/Software/XiaoRGEEK_Donkeycar_Android.apk"
        ],
        "btnNames": [
            "Download"
        ]
    },
    {
        "logoSrc": "https://www.xiaorgeek.com/Software/logo/wulibot.png",
        "name": "WuliBot for Android",
        "version": "v1.1",
        "desc": "support wulibot robot",
        "link": [
            "https://www.xiaorgeek.com/Software/WuLiBot.apk"
        ],
        "btnNames": [
            "Download"
        ]
    },
    {
        "logoSrc": "https://www.xiaorgeek.com/Software/logo/microbit.png",
        "name": "XRBitCar for iOS/Android",
        "version": "v3.2.1",
        "desc": "Micro:bit Robot Control and programming APP",
        "link": [
            "https://www.xiaorgeek.com/Software/XiaoRGEEK_Microbit_Android.apk",
            "./software/image/xrbitcar-ios.png"
        ],
        "btnNames": [
            "Android",
            "iOS"
        ]
    },
    {
        "logoSrc": "https://www.xiaorgeek.com/Software/logo/hexapod.png",
        "name": "Hexapod For PC",
        "version": "v1.0.2",
        "desc": "Hexapod for Window. The software provides a simulation system but is <span style='color:red'>no longer maintained</span>",
        "link": [
            "https://www.xiaorgeek.com/Software/hexapod-1.0.2.zip"
        ],
        "btnNames": [
            "Download"
        ]
    },
    {
        "logoSrc": "./software/image/smart-arm.png",
        "name": "AI Robotic-Arm Software",
        "version": "v1.0.9",
        "desc": "A software for AI Robotic-Arm serial product. Support win7、win10、win11",
        "link": [
            "./software/pc/smart-arm Setup 1.0.9.exe"
        ],
        "btnNames": [
            "Windows"
        ]
    },
    {
        "logoSrc": "https://www.cleverfiles.com/howto/wp-content/uploads/2018/04/what-is-zip.png",
        "name": "A RobotKit Software",
        "version": "v2.0.0",
        "desc": "A software for PWM Servo. Support win all",
        "link": [
            "./software/pc/Robotkit.zip"
        ],
        "btnNames": [
            "Windows"
        ]
    },
    {
        "logoSrc": "./software/image/jomoo.png",
        "name": "A Jomoo Software",
        "version": "v1.0.8",
        "desc": "Jomoo Software",
        "link": [
            "./software/android/Joomo-1.0.8.241012.403b42f-release.apk"
        ],
        "btnNames": [
            "Android"
        ]
    }
]